# Blender MTL File: 'None'
# Material Count: 7

newmtl Metal_Aluminum_Anodized.000
Ns 92.156863
Ka 1.000000 1.000000 1.000000
Kd 0.640000 0.640000 0.640000
Ks 0.500000 0.500000 0.500000
Ke 0.000000 0.000000 0.000000
Ni 1.000000
d 1.000000
illum 2
map_Kd C:\Users\j9-1-\Downloads\ES8M\model\Metal_Aluminum_Anodized.jpg

newmtl _0069_LimeGreen.000
Ns 92.156863
Ka 1.000000 1.000000 1.000000
Kd 0.196078 0.803922 0.196078
Ks 0.500000 0.500000 0.500000
Ke 0.000000 0.000000 0.000000
Ni 1.000000
d 1.000000
illum 2

newmtl _0075_ForestGreen.000
Ns 92.156863
Ka 1.000000 1.000000 1.000000
Kd 0.133333 0.545098 0.133333
Ks 0.500000 0.500000 0.500000
Ke 0.000000 0.000000 0.000000
Ni 1.000000
d 1.000000
illum 2

newmtl _0128_White.000
Ns 92.156863
Ka 1.000000 1.000000 1.000000
Kd 1.000000 1.000000 1.000000
Ks 0.500000 0.500000 0.500000
Ke 0.000000 0.000000 0.000000
Ni 1.000000
d 1.000000
illum 2

newmtl _0129_WhiteSmoke.000
Ns 92.156863
Ka 1.000000 1.000000 1.000000
Kd 0.960784 0.960784 0.960784
Ks 0.500000 0.500000 0.500000
Ke 0.000000 0.000000 0.000000
Ni 1.000000
d 1.000000
illum 2

newmtl material.000
Ns 92.156863
Ka 1.000000 1.000000 1.000000
Kd 0.670588 0.690196 0.800000
Ks 0.500000 0.500000 0.500000
Ke 0.000000 0.000000 0.000000
Ni 1.000000
d 1.000000
illum 2

newmtl material_0.000
Ns 92.156863
Ka 1.000000 1.000000 1.000000
Kd 1.000000 1.000000 1.000000
Ks 0.500000 0.500000 0.500000
Ke 0.000000 0.000000 0.000000
Ni 1.000000
d 1.000000
illum 2
