# Blender MTL File: 'STAIRSMODULE3BASIC-82X.obj'
# Material Count: 18

newmtl Floor
Ns 92.156863
Ka 1.000000 1.000000 1.000000
Kd 0.000000 0.520996 0.520996
Ks 1.000000 1.000000 1.000000
Ke 0.000000 0.000000 0.000000
Ni 1.000000
d 1.000000
illum 2
map_Kd resources\textures\floor.jpg

newmtl IDP_Pot.000
Ns 92.156863
Ka 1.000000 1.000000 1.000000
Kd 0.640000 0.640000 0.640000
Ks 0.200000 0.200000 0.200000
Ke 0.000000 0.000000 0.000000
Ni 1.000000
d 1.000000
illum 2
map_Kd resources\textures\plant_2_COL.jpg

newmtl IDP_Pot.000_untitled.000
Ns 92.156863
Ka 1.000000 1.000000 1.000000
Kd 0.640000 0.640000 0.640000
Ks 0.200000 0.200000 0.200000
Ke 0.000000 0.000000 0.000000
Ni 1.000000
d 1.000000
illum 2
map_Kd resources\textures\plant_2_COL.jpg

newmtl IDP_Pot.000_untitled.010
Ns 92.156863
Ka 1.000000 1.000000 1.000000
Kd 0.640000 0.640000 0.640000
Ks 0.200000 0.200000 0.200000
Ke 0.000000 0.000000 0.000000
Ni 1.000000
d 1.000000
illum 2
map_Kd resources\textures\plant_2_COL.jpg

newmtl IDP_Pot.001
Ns 92.156863
Ka 1.000000 1.000000 1.000000
Kd 0.640000 0.640000 0.640000
Ks 0.200000 0.200000 0.200000
Ke 0.000000 0.000000 0.000000
Ni 1.000000
d 1.000000
illum 2
map_Kd resources\textures\plant_2_COL.jpg

newmtl Pot_NOR_2.000
Ns 92.156863
Ka 1.000000 1.000000 1.000000
Kd 0.640000 0.640000 0.640000
Ks 0.200000 0.200000 0.200000
Ke 0.000000 0.000000 0.000000
Ni 1.000000
d 1.000000
illum 2
map_Kd resources\textures\plant_2_COL.jpg
map_Bump resources\textures\plant_2_NOR.jpg 

newmtl Pot_NOR_2.002
Ns 92.156863
Ka 1.000000 1.000000 1.000000
Kd 0.640000 0.640000 0.640000
Ks 0.200000 0.200000 0.200000
Ke 0.000000 0.000000 0.000000
Ni 1.000000
d 1.000000
illum 2
map_Kd resources\textures\plant_2_COL.jpg
map_Bump resources\textures\plant_2_NOR.jpg 

newmtl Pot_untitled.000
Ns 92.156863
Ka 1.000000 1.000000 1.000000
Kd 0.640000 0.640000 0.640000
Ks 0.200000 0.200000 0.200000
Ke 0.000000 0.000000 0.000000
Ni 1.000000
d 1.000000
illum 2
map_Kd resources\textures\plant_2_COL.jpg

newmtl Pot_untitled.003
Ns 92.156863
Ka 1.000000 1.000000 1.000000
Kd 0.640000 0.640000 0.640000
Ks 0.200000 0.200000 0.200000
Ke 0.000000 0.000000 0.000000
Ni 1.000000
d 1.000000
illum 2
map_Kd resources\textures\plant_2_COL.jpg

newmtl Railing
Ns 92.156863
Ka 1.000000 1.000000 1.000000
Kd 0.000000 0.041016 0.041016
Ks 0.500000 0.500000 0.500000
Ke 0.000000 0.000000 0.000000
Ni 1.000000
d 1.000000
illum 2
map_Kd resources\textures\wood.jpg
map_Bump resources\\textures\\marble_n.jpg

newmtl Stairs
Ns 92.156863
Ka 1.000000 1.000000 1.000000
Kd 0.640000 0.640000 0.640000
Ks 0.500000 0.500000 0.500000
Ke 0.000000 0.000000 0.000000
Ni 1.000000
d 1.000000
illum 2
map_Kd resources\textures\floor.jpg
map_Bump resources\\textures\\marble_n.jpg

newmtl Stairs_NONE
Ns 92.156863
Ka 1.000000 1.000000 1.000000
Kd 0.640000 0.640000 0.640000
Ks 0.500000 0.500000 0.500000
Ke 0.000000 0.000000 0.000000
Ni 1.000000
d 1.000000
illum 2
map_Bump resources\\textures\\marble_n.jpg
map_Kd resources\\textures\\floor.jpg

newmtl Stairs_NONE_floor.jpg.001
Ns 92.156863
Ka 1.000000 1.000000 1.000000
Kd 0.640000 0.640000 0.640000
Ks 0.500000 0.500000 0.500000
Ke 0.000000 0.000000 0.000000
Ni 1.000000
d 1.000000
illum 2
map_Kd resources\textures\floor.jpg
map_Bump resources\\textures\\marble_n.jpg

newmtl Stairs_floor.jpg
Ns 92.156863
Ka 1.000000 1.000000 1.000000
Kd 0.640000 0.640000 0.640000
Ks 0.500000 0.500000 0.500000
Ke 0.000000 0.000000 0.000000
Ni 1.000000
d 1.000000
illum 2
map_Kd resources\textures\floor.jpg
map_Bump resources\\textures\\marble_n.jpg

newmtl Stairs_floor.jpg_NONE
Ns 96.078431
Ka 1.000000 1.000000 1.000000
Kd 0.640000 0.640000 0.640000
Ks 0.500000 0.500000 0.500000
Ke 0.000000 0.000000 0.000000
Ni 1.000000
d 1.000000
illum 2

newmtl Stairs_wood.jpg
Ns 92.156863
Ka 1.000000 1.000000 1.000000
Kd 0.640000 0.640000 0.640000
Ks 0.500000 0.500000 0.500000
Ke 0.000000 0.000000 0.000000
Ni 1.000000
d 1.000000
illum 2
map_Kd resources\textures\wood.jpg
map_Bump resources\\textures\\marble_n.jpg

newmtl Wall
Ns 92.156863
Ka 1.000000 1.000000 1.000000
Kd 0.800000 0.184854 0.015884
Ks 0.500000 0.500000 0.500000
Ke 0.000000 0.000000 0.000000
Ni 1.000000
d 1.000000
illum 2
map_Ks resources\\textures\\cleanstone_s.png

newmtl Wood
Ns 92.156863
Ka 1.000000 1.000000 1.000000
Kd 0.640000 0.640000 0.640000
Ks 0.500000 0.500000 0.500000
Ke 0.000000 0.000000 0.000000
Ni 1.000000
d 1.000000
illum 2
map_Kd resources\textures\darkwood3.jpg
map_Bump resources\textures\cleanstone_n.png
